<svg width="22" height="33" viewBox="0 0 22 33" fill="none" xmlns="http://www.w3.org/2000/svg">
<path d="M19.4345 10.3125L11.8958 10.3125L14.6787 1.94648C14.94 0.966797 14.1888 0 13.1632 0L3.75614 0C2.97223 0 2.3059 0.573633 2.20137 1.34063L0.110924 16.8094C-0.0131961 17.7375 0.718461 18.5625 1.6657 18.5625H9.41995L6.4084 31.0986C6.17323 32.0783 6.93101 33 7.93051 33C8.47925 33 9.00187 32.7164 9.2893 32.2266L20.7868 12.6328C21.3943 11.608 20.6431 10.3125 19.4345 10.3125Z" fill="white"/>
</svg>
