<?xml version="1.0" encoding="utf-8"?>
<!-- Generator: Adobe Illustrator 24.1.2, SVG Export Plug-In . SVG Version: 6.00 Build 0)  -->
<svg version="1.1" id="Camada_1" xmlns="http://www.w3.org/2000/svg" xmlns:xlink="http://www.w3.org/1999/xlink" x="0px" y="0px"
	 viewBox="0 0 27 27" style="enable-background:new 0 0 27 27;" xml:space="preserve">
<style type="text/css">
	.st0{fill:#A8CF45;}
</style>
<path class="st0" d="M7,20.6c1.2,1.1,2.7,1.6,4.3,1.6c2.3,0,4.7-1.2,7-3.5c2-2,3.5-5.1,4.5-9.2c0.7-3,0.9-5.5,0.9-5.6
	c0-0.1,0-0.2-0.1-0.3c-0.1-0.1-0.2-0.1-0.2-0.1c0,0,0,0,0,0c-0.1,0-2.5,0.1-5.6,0.9c-4.1,1-7.2,2.5-9.2,4.5c-4.5,4.5-4,8.6-2.1,11
	L6.4,20l-2.9,2.9c-0.1,0.1-0.1,0.4,0,0.5c0.1,0.1,0.4,0.1,0.5,0L7,20.6L7,20.6z M8.9,9.4c3.9-3.9,11.5-4.9,13.8-5.1l0.1,0l0,0.1
	c-0.2,2.2-1.2,9.9-5.1,13.8c-2.1,2.1-4.4,3.3-6.5,3.3c-1.4,0-2.7-0.5-3.7-1.4L7.4,20l3-3l6.4-0.5c0.1,0,0.2-0.1,0.2-0.1
	c0.1-0.1,0.1-0.2,0.1-0.3c0-0.1-0.1-0.2-0.1-0.2c-0.1-0.1-0.2-0.1-0.3-0.1l-5.5,0.5l4.3-4.3l4.8-0.6c0.1,0,0.2-0.1,0.2-0.1
	c0.1-0.1,0.1-0.2,0.1-0.3c0-0.2-0.2-0.3-0.4-0.3l-3.9,0.5l3.4-3.4c0.1-0.1,0.1-0.2,0.1-0.2c0-0.1,0-0.2-0.1-0.2
	c-0.1-0.1-0.4-0.1-0.5,0l-6.1,6.1l0.6-5.2c0-0.1,0-0.2-0.1-0.3c-0.1-0.1-0.1-0.1-0.2-0.1c-0.1,0-0.2,0-0.3,0.1C13.1,7.9,13,7.9,13,8
	l-0.7,6.1l-3.4,3.4l0.7-5.4c0-0.2-0.1-0.4-0.3-0.4c-0.1,0-0.2,0-0.3,0.1C9,11.8,9,11.9,8.9,12l-0.8,6.3l-1.2,1.2l-0.1-0.1
	C4.2,16.2,6.3,12,8.9,9.4z"/>
</svg>
