{
	"disclosure-layout#institucional-mob": {
		"children": ["disclosure-trigger#institucional-mob", "disclosure-content#institucional-mob"]
	  },
	  "disclosure-trigger#institucional-mob": {
		"children": ["rich-text#institucional-title","disclosure-state-indicator"],
		"props": {
			"blockClass": "disclosure-title-footer",
			"as": "div"
		}
	  },
	  "disclosure-content#institucional-mob": {
		"children": ["rich-text#institucional-content-mob"],
		"props": {
			"blockClass": "disclosure-title-footer-mob"
		}
	  },
	  "rich-text#institucional-title": {
		"props": {
		  "text": "Institucional"
		}
	  },
	  "rich-text#institucional-content-mob": {
		"props": {
			"text": "#### Institucional \n [Sobre a marca](/sobre-nos) \n[Nossas Lojas](/nossas-lojas) \n [Contato](/contato)"
		}
	  },

	"disclosure-layout#minha-conta-mob": {
		"children": ["disclosure-trigger#minha-conta-mob", "disclosure-content#minha-conta-mob"]
	  },
	  "disclosure-trigger#minha-conta-mob": {
		"children": ["rich-text#minha-conta-title","disclosure-state-indicator"],
		"props": {
			"blockClass": "disclosure-title-footer",
			"as": "div"
		}
	  },
	  "disclosure-content#minha-conta-mob": {
		"children": ["rich-text#minha-conta-content-mob"],
		"props": {
			"blockClass": "disclosure-title-footer-mob"
		}
	  },
	  "rich-text#minha-conta-title": {
		"props": {
		  "text": "Minha Conta"
		}
	  },
	  "rich-text#minha-conta-content-mob": {
		"props": {
			"text": "#### Minha Conta \n[Login/Cadastre-se](/account)\n[Minha Conta](/account)\n[Pedidos](/account#/orders)\n[Meu carrinho](/checkout/#/cart)"
		}
	  },

	  "disclosure-layout#info-mob": {
		"children": ["disclosure-trigger#info-mob", "disclosure-content#info-mob"]
	  },
	  "disclosure-trigger#info-mob": {
		"children": ["rich-text#info-title","disclosure-state-indicator"],
		"props": {
			"blockClass": "disclosure-title-footer",
			"as": "div"
		}
	  },
	  "disclosure-content#info-mob": {
		"children": ["rich-text#info-content-mob"],
		"props": {
			"blockClass": "disclosure-title-footer-mob"
		}
	  },
	  "rich-text#info-title": {
		"props": {
		  "text": "Informações"
		}
	  },
	  "rich-text#info-content-mob": {
		"props": {
			"text": "#### Informações \n[Política de Envio](/troca-e-devolucao)\n[Dúvidas Frequentes](/duvidas-frequentes)\n[Política de Privacidade](/politica-de-privacidade)"
		}
	  },
	
	  "disclosure-state-indicator": {
		"props": {
		  "Show": "icon-caret#down",
		  "Hide": "icon-caret#up"
		}
	  },
	  "icon-caret#down": {
		"props": {
		  "orientation": "down"
		}
	  },
	  "icon-caret#up": {
		"props": {
		  "orientation": "up"
		}
	  }
}