{
	"flex-layout.row#footer-content": {
		"children": [
			"flex-layout.col#left-content", 
            "flex-layout.col#right-content"
        ],
		"props": {
			"blockClass": "footer-content-row"
		}
	},
	"flex-layout.col#left-content": {
		"children": ["flex-layout.col#atendimentos"],
		"props": {
			"width":"28%",
			"blockClass":"left-content"
		}
	},
	"flex-layout.col#right-content": {
		"children": ["flex-layout.row#right-content1","flex-layout.row#footer-bottom"],
		"props": {
			"width":"72%",
			"blockClass":"right-content"
		}
	},
	"flex-layout.row#right-content1": {
		"children": [ "flex-layout.col#footer-menu1","flex-layout.col#footer-menu2","flex-layout.col#footer-menu3"],
		"props": {
			"width":"72%",
			"blockClass":"right-content"
		}
	},
	"image#logo-bottom": {
		"props": {
		"src": "assets/logo/bottom-logo.png",
		"width": "178",
		"link": "/",
		"alt": "Casa do Colono",
		"title": "Casa do Colono",
		"blockClass": "logo-bottom"
		}
  	},
	"flex-layout.row#contato-social": {
		"children": [
            "image#contato-facebook",
			"image#contato-instagram"
        ],
		"props": {
			"blockClass": "footer-row-social",
			"width":"10%"

		}
	},
	"image#contato-instagram": {
		"props": {
		"src": "assets/images/bot-socialinstagram.png",
		"maxHeight": "42",
		"link": {
			"url":"https://www.instagram.com/lojascasadocolono/",
			"openNewTab":true
		},
		"alt": "Instagram"
		}
  	},
	"image#contato-facebook": {
		"props": {
		"src": "assets/images/bot-socialfacebook.png",
		"maxHeight": "42",
		"link": {
			"url":"https://www.facebook.com/lojascasadocolono",
			"openNewTab":true
		},
		"alt": "Instagram"
		}
  	},
	
    "flex-layout.col#footer-menu1": {
        "children": ["rich-text#footer-menu-items1"]
    },
    "flex-layout.col#footer-menu2": {
        "children": ["rich-text#footer-menu-items2"]
    },
    "flex-layout.col#footer-menu3": {
        "children": ["rich-text#footer-menu-items3"]
    },
    "rich-text#footer-menu-items1": {
		"props": {
			"textAlignment": "LEFT",
			"textPosition": "LEFT",
			"text": "#### Institucional \n [Sobre a marca](/sobre-nos) \n[Nossas Lojas](/nossas-lojas) \n [Contato](/contato)",
			"textColor": "c-on-base--inverted"
		}
	},
    "rich-text#footer-menu-items2": {
		"props": {
			"textAlignment": "LEFT",
			"textPosition": "LEFT",
			"text": "#### Informações \n[Política de Envio](/troca-e-devolucao)\n[Dúvidas Frequentes](/duvidas-frequentes)\n[Política de Privacidade](/politica-de-privacidade)",
			"textColor": "c-on-base--inverted"
		}
	},
    "rich-text#footer-menu-items3": {
		"props": {
			"textAlignment": "LEFT",
			"textPosition": "LEFT",
			"text": "#### Minha Conta \n[Login/Cadastre-se](/account)\n[Minha Conta](/account)\n[Pedidos](/account#/orders)\n[Meu carrinho](/checkout/#/cart)",
			"textColor": "c-on-base--inverted"
		}
	},

	"flex-layout.row#footer-content2": {
		"children": [
			"flex-layout.row#block-loja",
			"flex-layout.row#contato-social", 
			"flex-layout.row#footer-copyright"
        ],
		"props": {
			"blockClass": "footer-content-row2",
			"textAlignment": "LEFT",
			"textPosition": "LEFT"
		}
	},
	"flex-layout.row#block-loja": {
		"children": [
			"image#ico-loja-block",
			"rich-text#block-loja-texto"
        ],
		"props": {
			"blockClass": "footer-content-block",
			"width":"40%"
		}
	},
	"image#ico-loja-block": {
		"props": {
		"src": "assets/images/bot-nossaloja.png",
		"link": "/",
		"alt": "Nossa Loja",
		"title": "Nossa Loja",
		"blockClass": "logo-bottom"
		}
  	},
	"rich-text#block-loja-texto": {
		"props": {
			"textAlignment": "LEFT",
			"textPosition": "LEFT",
			"text": "Rua Maria de Lourdes Silva Guedes, n°23 - Ernesto Geisel, CEP 58076-162, João Pessoa - PB",
			"textColor": "c-on-base--inverted",
			"blockClass":"loja-texto"
		}
	}

}