{
"store.home": {
  "blocks": [
    "list-context.image-list#bannerprincipal",
    "flex-layout.row#benefits-footer",
    "list-context.image-list#mini-banners5",
    "flex-layout.row#shelf01",
    "flex-layout.row#shelf02",
    "flex-layout.row#shelf03",
    "flex-layout.row#shelf04",
    "flex-layout.row#shelf05",
    "flex-layout.row#mini-banner2"
  ]
},


"list-context.image-list#bannerprincipal": {
  "children": ["slider-layout#bannerprincipal-images"],
  "props": {
    "height": 614,
    "images": [
      {
        "image": "assets/banners/banner-slider1.png",
        "mobileImage": "assets/banners/banner-slider1-mob.png",
        "title":"banner Chuveiro"
      },
      {
        "image": "assets/banners/banner-slider1.png",
        "mobileImage": "assets/banners/banner-slider1-mob.png",
        "title":"banner compre e ganhe"
      }
    ]
  }
},
"slider-layout#bannerprincipal-images": {
  "props": {
    "itemsPerPage": {
      "desktop": 1,
      "tablet": 1,
      "phone": 1
    },
    "autoplay": {
      "timeout": 5000,
      "stopOnHover": true
    },
    "infinite": true,
    "showNavigationArrows": "desktopOnly",
    "blockClass": "carousel"
    
  }
},

"list-context.image-list#mini-banners5": {
  "children": ["slider-layout#minibanner-images"],
  "props": {
    "height": 320,
    "images": [
      {
        "image": "assets/banners/mini-banner1.png",
        "mobileImage": "assets/banners/mini-banner1.png",
        "title":"Banner Cães"
      },
      {
        "image": "assets/banners/mini-banner2.png",
        "mobileImage": "assets/banners/mini-banner2.png",
        "title":"Banner Gatos"
      },
      {
        "image": "assets/banners/mini-banner3.png",
        "mobileImage": "assets/banners/mini-banner3.png",
        "title":"Banner Utilidades"
      },
      {
        "image": "assets/banners/mini-banner4.png",
        "mobileImage": "assets/banners/mini-banner4.png",
        "title":"Banner Jardinagem"
      },
      {
        "image": "assets/banners/mini-banner5.png",
        "mobileImage": "assets/banners/mini-banner5.png",
        "title":"Banner Camping"
      }
    ]
  }
},
"slider-layout#minibanner-images": {
  "props": {
    "itemsPerPage": {
      "desktop": 5,
      "tablet": 3,
      "phone": 2
    },
    "infinite": true,
    "showNavigationArrows": "desktopOnly",
    "blockClass": "carousel-minibanners"
    
  }
}

}